[
 {
  "line": "const AWS_ID = \"AKIAIOSFODNN7EXAMPLE\"",
  "lineNumber": 12,
  "offender": "AKIAIOSFODNN7EXAMPLE",
  "commit": "9df28059eb841ed884ebe335849dcfa63e635c5e",
  "repo": ".",
  "repoURL": "",
  "leakURL": "",
  "rule": "AWS Access Key",
  "commitMessage": "Another AWS Key",
  "author": "Zach Rice",
  "email": "zrice@gitlab.com",
  "file": "main.php",
  "date": "2020-09-01T13:04:36Z",
  "tags": "key, AWS"
 },
 {
  "line": "const AWS_ID = \"AKIAIOSFODNN7EXAMPLE\"",
  "lineNumber": 18,
  "offender": "AKIAIOSFODNN7EXAMPLE",
  "commit": "aa8615ea6a6dc8feedc4c5b814c5ad8734b3efa8",
  "repo": ".",
  "repoURL": "",
  "leakURL": "",
  "rule": "AWS Access Key",
  "commitMessage": "Adding AWS commit",
  "author": "Zach Rice",
  "email": "zrice@gitlab.com",
  "file": "main.php",
  "date": "2020-09-01T13:03:51Z",
  "tags": "key, AWS"
 },
 {
  "line": "aws_access_key_id = AKIAXYZDQCENR3HDDQGL",
  "lineNumber": 2,
  "offender": "AKIAXYZDQCENR3HDDQGL",
  "commit": "76ebf8a5122643fff8b95109b43c32b3b5063e30",
  "repo": ".",
  "repoURL": "",
  "leakURL": "",
  "rule": "AWS Access Key",
  "commitMessage": "Merge branch 'add_secrets' into 'master'\n\nAdd secrets for common API keys/tokens\n\nSee merge request gitlab-org/security-products/tests/secrets!8",
  "author": "Zach Rice",
  "email": "zrice@gitlab.com",
  "file": "keys/aws",
  "date": "2020-03-12T19:58:51Z",
  "tags": "key, AWS"
 },
 {
  "line": "AMAZON_MWS_AUTH_TOKEN=amzn.mws.88a7cea1-30c1-9e91-6775-cab3284e5fef",
  "lineNumber": 1,
  "offender": "amzn.mws.88a7cea1-30c1-9e91-6775-cab3284e5fef",
  "commit": "dcd85f36d177cd363ca4b353635767c031360da4",
  "repo": ".",
  "repoURL": "",
  "leakURL": "",
  "rule": "AWS MWS key",
  "commitMessage": "add all keys\n",
  "author": "Isaac Dawson",
  "email": "idawson@gitlab.com",
  "file": "keys/amazon_mws_auth_key",
  "date": "2020-03-03T13:29:52+09:00",
  "tags": "key, AWS, MWS"
 },
 {
  "line": "aws_access_key_id = AKIAXYZDQCENR3HDDQGL",
  "lineNumber": 2,
  "offender": "AKIAXYZDQCENR3HDDQGL",
  "commit": "af00da34f6f7efa204d949a58b0e660bc6147661",
  "repo": ".",
  "repoURL": "",
  "leakURL": "",
  "rule": "AWS Access Key",
  "commitMessage": "add more secrets for testing\n",
  "author": "Isaac Dawson",
  "email": "idawson@gitlab.com",
  "file": "keys/.aws",
  "date": "2020-03-03T09:40:00+09:00",
  "tags": "key, AWS"
 },
 {
  "line": "-----BEGIN RSA PRIVATE KEY-----",
  "lineNumber": 1,
  "offender": "-----BEGIN RSA PRIVATE KEY-----",
  "commit": "4020cfefa12d5266406ccd48fa62ef37d0d5af56",
  "repo": ".",
  "repoURL": "",
  "leakURL": "",
  "rule": "Asymmetric Private Key",
  "commitMessage": "Initial commit\n",
  "author": "Gilbert Roulot",
  "email": "groulot@gitlab.com",
  "file": "id_rsa",
  "date": "2019-03-14T14:10:27+01:00",
  "tags": "key, AsymmetricPrivateKey"
 },
 {
  "line": "aws_access_key_id = AKIAXYZDQCENR3HDDQGL",
  "lineNumber": 2,
  "offender": "AKIAXYZDQCENR3HDDQGL",
  "commit": "ef0d61a40bbf6cfd89b2cd7f4ffb431e386c0da9",
  "repo": ".",
  "repoURL": "",
  "leakURL": "",
  "rule": "AWS Access Key",
  "commitMessage": "Add secrets for common API keys/tokens\n",
  "author": "Isaac Dawson",
  "email": "idawson@gitlab.com",
  "file": "keys/aws",
  "date": "2020-03-12T19:58:51Z",
  "tags": "key, AWS"
 },
 {
  "line": "-----BEGIN OPENSSH PRIVATE KEY-----",
  "lineNumber": 1,
  "offender": "-----BEGIN OPENSSH PRIVATE KEY-----",
  "commit": "ef0d61a40bbf6cfd89b2cd7f4ffb431e386c0da9",
  "repo": ".",
  "repoURL": "",
  "leakURL": "",
  "rule": "Asymmetric Private Key",
  "commitMessage": "Add secrets for common API keys/tokens\n",
  "author": "Isaac Dawson",
  "email": "idawson@gitlab.com",
  "file": "keys/dsa_key",
  "date": "2020-03-12T19:58:51Z",
  "tags": "key, AsymmetricPrivateKey"
 },
 {
  "line": "-----BEGIN OPENSSH PRIVATE KEY-----",
  "lineNumber": 1,
  "offender": "-----BEGIN OPENSSH PRIVATE KEY-----",
  "commit": "ef0d61a40bbf6cfd89b2cd7f4ffb431e386c0da9",
  "repo": ".",
  "repoURL": "",
  "leakURL": "",
  "rule": "Asymmetric Private Key",
  "commitMessage": "Add secrets for common API keys/tokens\n",
  "author": "Isaac Dawson",
  "email": "idawson@gitlab.com",
  "file": "keys/ecdsa_key",
  "date": "2020-03-12T19:58:51Z",
  "tags": "key, AsymmetricPrivateKey"
 },
 {
  "line": "-----BEGIN OPENSSH PRIVATE KEY-----",
  "lineNumber": 1,
  "offender": "-----BEGIN OPENSSH PRIVATE KEY-----",
  "commit": "ef0d61a40bbf6cfd89b2cd7f4ffb431e386c0da9",
  "repo": ".",
  "repoURL": "",
  "leakURL": "",
  "rule": "Asymmetric Private Key",
  "commitMessage": "Add secrets for common API keys/tokens\n",
  "author": "Isaac Dawson",
  "email": "idawson@gitlab.com",
  "file": "keys/ed25519_key",
  "date": "2020-03-12T19:58:51Z",
  "tags": "key, AsymmetricPrivateKey"
 },
 {
  "line": "-----BEGIN PGP PRIVATE KEY BLOCK-----",
  "lineNumber": 1,
  "offender": "-----BEGIN PGP PRIVATE KEY BLOCK-----",
  "commit": "ef0d61a40bbf6cfd89b2cd7f4ffb431e386c0da9",
  "repo": ".",
  "repoURL": "",
  "leakURL": "",
  "rule": "Asymmetric Private Key",
  "commitMessage": "Add secrets for common API keys/tokens\n",
  "author": "Isaac Dawson",
  "email": "idawson@gitlab.com",
  "file": "keys/pgp_ecc_key",
  "date": "2020-03-12T19:58:51Z",
  "tags": "key, AsymmetricPrivateKey"
 },
 {
  "line": "-----BEGIN PGP PRIVATE KEY BLOCK-----",
  "lineNumber": 1,
  "offender": "-----BEGIN PGP PRIVATE KEY BLOCK-----",
  "commit": "ef0d61a40bbf6cfd89b2cd7f4ffb431e386c0da9",
  "repo": ".",
  "repoURL": "",
  "leakURL": "",
  "rule": "Asymmetric Private Key",
  "commitMessage": "Add secrets for common API keys/tokens\n",
  "author": "Isaac Dawson",
  "email": "idawson@gitlab.com",
  "file": "keys/pgp_rsa_key",
  "date": "2020-03-12T19:58:51Z",
  "tags": "key, AsymmetricPrivateKey"
 },
 {
  "line": "-----BEGIN OPENSSH PRIVATE KEY-----",
  "lineNumber": 1,
  "offender": "-----BEGIN OPENSSH PRIVATE KEY-----",
  "commit": "ef0d61a40bbf6cfd89b2cd7f4ffb431e386c0da9",
  "repo": ".",
  "repoURL": "",
  "leakURL": "",
  "rule": "Asymmetric Private Key",
  "commitMessage": "Add secrets for common API keys/tokens\n",
  "author": "Isaac Dawson",
  "email": "idawson@gitlab.com",
  "file": "keys/rsa_key",
  "date": "2020-03-12T19:58:51Z",
  "tags": "key, AsymmetricPrivateKey"
 },
 {
  "line": "slack_api_key = xoxp-905439787527-905447633015-963063100946-525994fbdbee1ef3096438e693ca6cf2",
  "lineNumber": 2,
  "offender": "xoxp-905439787527",
  "commit": "ef0d61a40bbf6cfd89b2cd7f4ffb431e386c0da9",
  "repo": ".",
  "repoURL": "",
  "leakURL": "",
  "rule": "Slack",
  "commitMessage": "Add secrets for common API keys/tokens\n",
  "author": "Isaac Dawson",
  "email": "idawson@gitlab.com",
  "file": "keys/slack_key",
  "date": "2020-03-12T19:58:51Z",
  "tags": "key, Slack"
 },
 {
  "line": "STRIPE_KEY=sk_live_4eC39HqLyjWDarjtT1zdp7dc",
  "lineNumber": 2,
  "offender": "STRIPE_KEY=sk_live_4eC39HqLyjWDarjtT1zdp7dc",
  "commit": "ef0d61a40bbf6cfd89b2cd7f4ffb431e386c0da9",
  "repo": ".",
  "repoURL": "",
  "leakURL": "",
  "rule": "Stripe API key",
  "commitMessage": "Add secrets for common API keys/tokens\n",
  "author": "Isaac Dawson",
  "email": "idawson@gitlab.com",
  "file": "keys/stripe_key",
  "date": "2020-03-12T19:58:51Z",
  "tags": "key, Stripe"
 },
 {
  "line": "STRIPE_RESTRICTED_KEY=rk_live_4eC39HqLyjWDarjtT1zdp7dc",
  "lineNumber": 3,
  "offender": "STRIPE_RESTRICTED_KEY=rk_live_4eC39HqLyjWDarjtT1zdp7dc",
  "commit": "ef0d61a40bbf6cfd89b2cd7f4ffb431e386c0da9",
  "repo": ".",
  "repoURL": "",
  "leakURL": "",
  "rule": "Stripe API key",
  "commitMessage": "Add secrets for common API keys/tokens\n",
  "author": "Isaac Dawson",
  "email": "idawson@gitlab.com",
  "file": "keys/stripe_key",
  "date": "2020-03-12T19:58:51Z",
  "tags": "key, Stripe"
 },
 {
  "line": "    \"type\": \"service_account\",",
  "lineNumber": 2,
  "offender": "\"type\": \"service_account\"",
  "commit": "ef0d61a40bbf6cfd89b2cd7f4ffb431e386c0da9",
  "repo": ".",
  "repoURL": "",
  "leakURL": "",
  "rule": "Google (GCP) Service Account",
  "commitMessage": "Add secrets for common API keys/tokens\n",
  "author": "Isaac Dawson",
  "email": "idawson@gitlab.com",
  "file": "keys/testkeys-110044-23ecb974342473e425f395ddd5f8f787ac6be90d.json",
  "date": "2020-03-12T19:58:51Z",
  "tags": "key, Google"
 },
 {
  "line": "    \"private_key\": \"-----BEGIN PRIVATE KEY-----\\nMIIEvQIBADANBgkqhkiG9w0BAQEFAASCBKcwggSjAgEAAoIBAQC1Ah18OamHGpy2\\n1xVuWEKCI2OkPovHqY33R6HUCKW690Bs0D7k81ZFmoHcafjTH3uOuZWFsMooBC3Q\\neVgKw2RVDvPgsy6BswhumlVteuTti2eZIcmj/YIuEndLGH11HZuQevMTn3AupaHT\\nEPoYb8eF926vSWQhAfcWBU3XF3to5jyEg5Qtny9GY+FY0mUhX7LBdnYnhqLKhM7S\\nT5zFF4z/FDWYhbtfsmfU4g/hqjoB/7Fmwmz/ANVRKmQ8wLBA87dqIU2H4q1SewP+\\ncCsrNLYIo4hV3pyJtlEHczFg5N+9wxMq6YYuMoUl+oPq9x/ixfSdqNVshv5DurG+\\nFbgDH7VHAgMBAAECggEAUk126LAzVDoWfdCIbxb0jsXWnazO0+dVpNVOUOHpsXyR\\nL6j0oBfA538cgwMwX5bWEIxz30kGcnGL/1ndXW+ApGhbHZV7lP+52siUBWa2xwf3\\nABrr24P+eEJvOZcWHHVs8aHl+sspMByh2x3CCfBxcYmTK2Kcg6GoHrwkq6OCuqwJ\\naOD3YfcJU9c9/k6V3YT8b8CVifCWReZlHizPWolBdi/LpIQiuGmjRmsK6dqmvAXX\\nHndJcsFd1hUGtClSeZ8MOCySSjPVqFftiWet+H08OaX37Mj/h3prymGj++ArL0Mj\\nKwST11+OGCZLqgWgyNavDI9IWWmGuaKhOK7vUjrRKQKBgQDhnN1sRhShvOkbWkle\\nmkMI40E5qocho8zQV22I+wRl3Eg6/pp5GJAy9PRGWgxUjGa8+dIIjP1JVEqNpS7e\\nhDW9Se4p8xGP4HEus0wfQZwJnG6+iRajh1bdFdC2rezRjsEQQ16aD3ZhEPCRLz6J\\neRYXibW7iGV9oyGPfqmj69D3jQKBgQDNY0kzProBpw/NEYZVxyHwUMjVep4HyJUk\\nAju1yx4fm0PBLVLLV0FyGf3xn9RkUuk+efWXMP/j/2SGw44EQsOdMjmqAURn74Dc\\na80we4LLg51ebt29Q5zOhyfMV65LId6fK+TckirW06rbcM5S/M1ON8eFM90vviFw\\nJ+YjSXORIwKBgBnMXC1zXgyYk3dDPbyJmzy678xuSYF5P4RbWvUc7wXOyJumXXeX\\nbXXGOOCKj3pji6P0VSYRKS1nbBcCWnerWpHIkGlPmCSBn6+dZQj18afPsYIsHuCY\\nK0Cgq/sXrErSLhVz/q9TMVAsJbYUVuxVYkdSwestz50sODw2WaOa5YxJAoGALPZe\\nUPybZb8341HB0cdtM5nLzYgxTkzn8WEXxz13E74+v+x3IpKwfhUYlavCqE/KReYX\\nEIkmi7gePq5SybX/8srK+t+aJRK2aAqlecagJINkkQa+Pi+uBTxrRv2u5z276aaH\\nTI4nGK5vyehRErPLEiN95zgqZMg/s7jYVcM/rHcCgYEAyvR8yWanh9ZZO1dNYil6\\nUKXP5B4/MHklaJtXJs88xkRV1+/8gtyPBeoUJwFNh6fDzLAdijhYID3R2O+cKYyk\\nNTsPhxgB11sJy4EkVZrMbEb70LPtF2LlvLQp2nM/h/hCaEZ04yJ6KiKmPdlNlHRG\\n8Ar37umH1zAk1jYmpmmb2pQ=\\n-----END PRIVATE KEY-----\\n\",",
  "lineNumber": 5,
  "offender": "-----BEGIN PRIVATE KEY-----",
  "commit": "ef0d61a40bbf6cfd89b2cd7f4ffb431e386c0da9",
  "repo": ".",
  "repoURL": "",
  "leakURL": "",
  "rule": "Asymmetric Private Key",
  "commitMessage": "Add secrets for common API keys/tokens\n",
  "author": "Isaac Dawson",
  "email": "idawson@gitlab.com",
  "file": "keys/testkeys-110044-23ecb974342473e425f395ddd5f8f787ac6be90d.json",
  "date": "2020-03-12T19:58:51Z",
  "tags": "key, AsymmetricPrivateKey"
 },
 {
  "line": "    AWS_ID := \"AKIAIOSFODNN7EXAMPLE\"",
  "lineNumber": 61,
  "offender": "AKIAIOSFODNN7EXAMPLE",
  "commit": "9df28059eb841ed884ebe335849dcfa63e635c5e",
  "repo": ".",
  "repoURL": "",
  "leakURL": "",
  "rule": "AWS Access Key",
  "commitMessage": "Another AWS Key",
  "author": "Zach Rice",
  "email": "zrice@gitlab.com",
  "file": "main.php",
  "date": "2020-09-01T13:04:36Z",
  "tags": "key, AWS"
 },
 {
  "line": "-----BEGIN OPENSSH PRIVATE KEY-----",
  "lineNumber": 1,
  "offender": "-----BEGIN OPENSSH PRIVATE KEY-----",
  "commit": "76ebf8a5122643fff8b95109b43c32b3b5063e30",
  "repo": ".",
  "repoURL": "",
  "leakURL": "",
  "rule": "Asymmetric Private Key",
  "commitMessage": "Merge branch 'add_secrets' into 'master'\n\nAdd secrets for common API keys/tokens\n\nSee merge request gitlab-org/security-products/tests/secrets!8",
  "author": "Zach Rice",
  "email": "zrice@gitlab.com",
  "file": "keys/dsa_key",
  "date": "2020-03-12T19:58:51Z",
  "tags": "key, AsymmetricPrivateKey"
 },
 {
  "line": "-----BEGIN OPENSSH PRIVATE KEY-----",
  "lineNumber": 1,
  "offender": "-----BEGIN OPENSSH PRIVATE KEY-----",
  "commit": "76ebf8a5122643fff8b95109b43c32b3b5063e30",
  "repo": ".",
  "repoURL": "",
  "leakURL": "",
  "rule": "Asymmetric Private Key",
  "commitMessage": "Merge branch 'add_secrets' into 'master'\n\nAdd secrets for common API keys/tokens\n\nSee merge request gitlab-org/security-products/tests/secrets!8",
  "author": "Zach Rice",
  "email": "zrice@gitlab.com",
  "file": "keys/ecdsa_key",
  "date": "2020-03-12T19:58:51Z",
  "tags": "key, AsymmetricPrivateKey"
 },
 {
  "line": "-----BEGIN OPENSSH PRIVATE KEY-----",
  "lineNumber": 1,
  "offender": "-----BEGIN OPENSSH PRIVATE KEY-----",
  "commit": "76ebf8a5122643fff8b95109b43c32b3b5063e30",
  "repo": ".",
  "repoURL": "",
  "leakURL": "",
  "rule": "Asymmetric Private Key",
  "commitMessage": "Merge branch 'add_secrets' into 'master'\n\nAdd secrets for common API keys/tokens\n\nSee merge request gitlab-org/security-products/tests/secrets!8",
  "author": "Zach Rice",
  "email": "zrice@gitlab.com",
  "file": "keys/ed25519_key",
  "date": "2020-03-12T19:58:51Z",
  "tags": "key, AsymmetricPrivateKey"
 },
 {
  "line": "-----BEGIN PGP PRIVATE KEY BLOCK-----",
  "lineNumber": 1,
  "offender": "-----BEGIN PGP PRIVATE KEY BLOCK-----",
  "commit": "76ebf8a5122643fff8b95109b43c32b3b5063e30",
  "repo": ".",
  "repoURL": "",
  "leakURL": "",
  "rule": "Asymmetric Private Key",
  "commitMessage": "Merge branch 'add_secrets' into 'master'\n\nAdd secrets for common API keys/tokens\n\nSee merge request gitlab-org/security-products/tests/secrets!8",
  "author": "Zach Rice",
  "email": "zrice@gitlab.com",
  "file": "keys/pgp_ecc_key",
  "date": "2020-03-12T19:58:51Z",
  "tags": "key, AsymmetricPrivateKey"
 },
 {
  "line": "-----BEGIN PGP PRIVATE KEY BLOCK-----",
  "lineNumber": 1,
  "offender": "-----BEGIN PGP PRIVATE KEY BLOCK-----",
  "commit": "76ebf8a5122643fff8b95109b43c32b3b5063e30",
  "repo": ".",
  "repoURL": "",
  "leakURL": "",
  "rule": "Asymmetric Private Key",
  "commitMessage": "Merge branch 'add_secrets' into 'master'\n\nAdd secrets for common API keys/tokens\n\nSee merge request gitlab-org/security-products/tests/secrets!8",
  "author": "Zach Rice",
  "email": "zrice@gitlab.com",
  "file": "keys/pgp_rsa_key",
  "date": "2020-03-12T19:58:51Z",
  "tags": "key, AsymmetricPrivateKey"
 },
 {
  "line": "-----BEGIN OPENSSH PRIVATE KEY-----",
  "lineNumber": 1,
  "offender": "-----BEGIN OPENSSH PRIVATE KEY-----",
  "commit": "76ebf8a5122643fff8b95109b43c32b3b5063e30",
  "repo": ".",
  "repoURL": "",
  "leakURL": "",
  "rule": "Asymmetric Private Key",
  "commitMessage": "Merge branch 'add_secrets' into 'master'\n\nAdd secrets for common API keys/tokens\n\nSee merge request gitlab-org/security-products/tests/secrets!8",
  "author": "Zach Rice",
  "email": "zrice@gitlab.com",
  "file": "keys/rsa_key",
  "date": "2020-03-12T19:58:51Z",
  "tags": "key, AsymmetricPrivateKey"
 },
 {
  "line": "slack_api_key = xoxp-905439787527-905447633015-963063100946-525994fbdbee1ef3096438e693ca6cf2",
  "lineNumber": 2,
  "offender": "xoxp-905439787527",
  "commit": "76ebf8a5122643fff8b95109b43c32b3b5063e30",
  "repo": ".",
  "repoURL": "",
  "leakURL": "",
  "rule": "Slack",
  "commitMessage": "Merge branch 'add_secrets' into 'master'\n\nAdd secrets for common API keys/tokens\n\nSee merge request gitlab-org/security-products/tests/secrets!8",
  "author": "Zach Rice",
  "email": "zrice@gitlab.com",
  "file": "keys/slack_key",
  "date": "2020-03-12T19:58:51Z",
  "tags": "key, Slack"
 },
 {
  "line": "STRIPE_KEY=sk_live_4eC39HqLyjWDarjtT1zdp7dc",
  "lineNumber": 2,
  "offender": "STRIPE_KEY=sk_live_4eC39HqLyjWDarjtT1zdp7dc",
  "commit": "76ebf8a5122643fff8b95109b43c32b3b5063e30",
  "repo": ".",
  "repoURL": "",
  "leakURL": "",
  "rule": "Stripe API key",
  "commitMessage": "Merge branch 'add_secrets' into 'master'\n\nAdd secrets for common API keys/tokens\n\nSee merge request gitlab-org/security-products/tests/secrets!8",
  "author": "Zach Rice",
  "email": "zrice@gitlab.com",
  "file": "keys/stripe_key",
  "date": "2020-03-12T19:58:51Z",
  "tags": "key, Stripe"
 },
 {
  "line": "STRIPE_RESTRICTED_KEY=rk_live_4eC39HqLyjWDarjtT1zdp7dc",
  "lineNumber": 3,
  "offender": "STRIPE_RESTRICTED_KEY=rk_live_4eC39HqLyjWDarjtT1zdp7dc",
  "commit": "76ebf8a5122643fff8b95109b43c32b3b5063e30",
  "repo": ".",
  "repoURL": "",
  "leakURL": "",
  "rule": "Stripe API key",
  "commitMessage": "Merge branch 'add_secrets' into 'master'\n\nAdd secrets for common API keys/tokens\n\nSee merge request gitlab-org/security-products/tests/secrets!8",
  "author": "Zach Rice",
  "email": "zrice@gitlab.com",
  "file": "keys/stripe_key",
  "date": "2020-03-12T19:58:51Z",
  "tags": "key, Stripe"
 },
 {
  "line": "    \"type\": \"service_account\",",
  "lineNumber": 2,
  "offender": "\"type\": \"service_account\"",
  "commit": "76ebf8a5122643fff8b95109b43c32b3b5063e30",
  "repo": ".",
  "repoURL": "",
  "leakURL": "",
  "rule": "Google (GCP) Service Account",
  "commitMessage": "Merge branch 'add_secrets' into 'master'\n\nAdd secrets for common API keys/tokens\n\nSee merge request gitlab-org/security-products/tests/secrets!8",
  "author": "Zach Rice",
  "email": "zrice@gitlab.com",
  "file": "keys/testkeys-110044-23ecb974342473e425f395ddd5f8f787ac6be90d.json",
  "date": "2020-03-12T19:58:51Z",
  "tags": "key, Google"
 },
 {
  "line": "    \"private_key\": \"-----BEGIN PRIVATE KEY-----\\nMIIEvQIBADANBgkqhkiG9w0BAQEFAASCBKcwggSjAgEAAoIBAQC1Ah18OamHGpy2\\n1xVuWEKCI2OkPovHqY33R6HUCKW690Bs0D7k81ZFmoHcafjTH3uOuZWFsMooBC3Q\\neVgKw2RVDvPgsy6BswhumlVteuTti2eZIcmj/YIuEndLGH11HZuQevMTn3AupaHT\\nEPoYb8eF926vSWQhAfcWBU3XF3to5jyEg5Qtny9GY+FY0mUhX7LBdnYnhqLKhM7S\\nT5zFF4z/FDWYhbtfsmfU4g/hqjoB/7Fmwmz/ANVRKmQ8wLBA87dqIU2H4q1SewP+\\ncCsrNLYIo4hV3pyJtlEHczFg5N+9wxMq6YYuMoUl+oPq9x/ixfSdqNVshv5DurG+\\nFbgDH7VHAgMBAAECggEAUk126LAzVDoWfdCIbxb0jsXWnazO0+dVpNVOUOHpsXyR\\nL6j0oBfA538cgwMwX5bWEIxz30kGcnGL/1ndXW+ApGhbHZV7lP+52siUBWa2xwf3\\nABrr24P+eEJvOZcWHHVs8aHl+sspMByh2x3CCfBxcYmTK2Kcg6GoHrwkq6OCuqwJ\\naOD3YfcJU9c9/k6V3YT8b8CVifCWReZlHizPWolBdi/LpIQiuGmjRmsK6dqmvAXX\\nHndJcsFd1hUGtClSeZ8MOCySSjPVqFftiWet+H08OaX37Mj/h3prymGj++ArL0Mj\\nKwST11+OGCZLqgWgyNavDI9IWWmGuaKhOK7vUjrRKQKBgQDhnN1sRhShvOkbWkle\\nmkMI40E5qocho8zQV22I+wRl3Eg6/pp5GJAy9PRGWgxUjGa8+dIIjP1JVEqNpS7e\\nhDW9Se4p8xGP4HEus0wfQZwJnG6+iRajh1bdFdC2rezRjsEQQ16aD3ZhEPCRLz6J\\neRYXibW7iGV9oyGPfqmj69D3jQKBgQDNY0kzProBpw/NEYZVxyHwUMjVep4HyJUk\\nAju1yx4fm0PBLVLLV0FyGf3xn9RkUuk+efWXMP/j/2SGw44EQsOdMjmqAURn74Dc\\na80we4LLg51ebt29Q5zOhyfMV65LId6fK+TckirW06rbcM5S/M1ON8eFM90vviFw\\nJ+YjSXORIwKBgBnMXC1zXgyYk3dDPbyJmzy678xuSYF5P4RbWvUc7wXOyJumXXeX\\nbXXGOOCKj3pji6P0VSYRKS1nbBcCWnerWpHIkGlPmCSBn6+dZQj18afPsYIsHuCY\\nK0Cgq/sXrErSLhVz/q9TMVAsJbYUVuxVYkdSwestz50sODw2WaOa5YxJAoGALPZe\\nUPybZb8341HB0cdtM5nLzYgxTkzn8WEXxz13E74+v+x3IpKwfhUYlavCqE/KReYX\\nEIkmi7gePq5SybX/8srK+t+aJRK2aAqlecagJINkkQa+Pi+uBTxrRv2u5z276aaH\\nTI4nGK5vyehRErPLEiN95zgqZMg/s7jYVcM/rHcCgYEAyvR8yWanh9ZZO1dNYil6\\nUKXP5B4/MHklaJtXJs88xkRV1+/8gtyPBeoUJwFNh6fDzLAdijhYID3R2O+cKYyk\\nNTsPhxgB11sJy4EkVZrMbEb70LPtF2LlvLQp2nM/h/hCaEZ04yJ6KiKmPdlNlHRG\\n8Ar37umH1zAk1jYmpmmb2pQ=\\n-----END PRIVATE KEY-----\\n\",",
  "lineNumber": 5,
  "offender": "-----BEGIN PRIVATE KEY-----",
  "commit": "76ebf8a5122643fff8b95109b43c32b3b5063e30",
  "repo": ".",
  "repoURL": "",
  "leakURL": "",
  "rule": "Asymmetric Private Key",
  "commitMessage": "Merge branch 'add_secrets' into 'master'\n\nAdd secrets for common API keys/tokens\n\nSee merge request gitlab-org/security-products/tests/secrets!8",
  "author": "Zach Rice",
  "email": "zrice@gitlab.com",
  "file": "keys/testkeys-110044-23ecb974342473e425f395ddd5f8f787ac6be90d.json",
  "date": "2020-03-12T19:58:51Z",
  "tags": "key, AsymmetricPrivateKey"
 },
 {
  "line": "BRAINTREE_ACCESS_TOKEN=access_token$production$5cx8v52hqx8zrs3v$58d6db428560f831a66ce41fe9a14e5e",
  "lineNumber": 1,
  "offender": "access_token$production$5cx8v52hqx8zrs3v$58d6db428560f831a66ce41fe9a14e5e",
  "commit": "dcd85f36d177cd363ca4b353635767c031360da4",
  "repo": ".",
  "repoURL": "",
  "leakURL": "",
  "rule": "PayPal Braintree access token",
  "commitMessage": "add all keys\n",
  "author": "Isaac Dawson",
  "email": "idawson@gitlab.com",
  "file": "keys/braintree_key",
  "date": "2020-03-03T13:29:52+09:00",
  "tags": "key, Paypal"
 },
 {
  "line": "-----BEGIN OPENSSH PRIVATE KEY-----",
  "lineNumber": 1,
  "offender": "-----BEGIN OPENSSH PRIVATE KEY-----",
  "commit": "dcd85f36d177cd363ca4b353635767c031360da4",
  "repo": ".",
  "repoURL": "",
  "leakURL": "",
  "rule": "Asymmetric Private Key",
  "commitMessage": "add all keys\n",
  "author": "Isaac Dawson",
  "email": "idawson@gitlab.com",
  "file": "keys/dsa_key",
  "date": "2020-03-03T13:29:52+09:00",
  "tags": "key, AsymmetricPrivateKey"
 },
 {
  "line": "-----BEGIN OPENSSH PRIVATE KEY-----",
  "lineNumber": 1,
  "offender": "-----BEGIN OPENSSH PRIVATE KEY-----",
  "commit": "dcd85f36d177cd363ca4b353635767c031360da4",
  "repo": ".",
  "repoURL": "",
  "leakURL": "",
  "rule": "Asymmetric Private Key",
  "commitMessage": "add all keys\n",
  "author": "Isaac Dawson",
  "email": "idawson@gitlab.com",
  "file": "keys/ecdsa_key",
  "date": "2020-03-03T13:29:52+09:00",
  "tags": "key, AsymmetricPrivateKey"
 },
 {
  "line": "-----BEGIN OPENSSH PRIVATE KEY-----",
  "lineNumber": 1,
  "offender": "-----BEGIN OPENSSH PRIVATE KEY-----",
  "commit": "dcd85f36d177cd363ca4b353635767c031360da4",
  "repo": ".",
  "repoURL": "",
  "leakURL": "",
  "rule": "Asymmetric Private Key",
  "commitMessage": "add all keys\n",
  "author": "Isaac Dawson",
  "email": "idawson@gitlab.com",
  "file": "keys/ed25519_key",
  "date": "2020-03-03T13:29:52+09:00",
  "tags": "key, AsymmetricPrivateKey"
 },
 {
  "line": "MAILCHIMP_KEY=f1de910a43cf06b804ce070b3925bfeb-us17",
  "lineNumber": 1,
  "offender": "MAILCHIMP_KEY=f1de910a43cf06b804ce070b3925bfeb-us17",
  "commit": "dcd85f36d177cd363ca4b353635767c031360da4",
  "repo": ".",
  "repoURL": "",
  "leakURL": "",
  "rule": "MailChimp API key",
  "commitMessage": "add all keys\n",
  "author": "Isaac Dawson",
  "email": "idawson@gitlab.com",
  "file": "keys/mailchimp_key",
  "date": "2020-03-03T13:29:52+09:00",
  "tags": "key, Mailchimp"
 },
 {
  "line": "MAILGUN_KEY=key-e98f02fb71f9ee886e96588013241ca0",
  "lineNumber": 1,
  "offender": "MAILGUN_KEY=key-e98f02fb71f9ee886e96588013241ca0",
  "commit": "dcd85f36d177cd363ca4b353635767c031360da4",
  "repo": ".",
  "repoURL": "",
  "leakURL": "",
  "rule": "Mailgun API key",
  "commitMessage": "add all keys\n",
  "author": "Isaac Dawson",
  "email": "idawson@gitlab.com",
  "file": "keys/mailgun-key",
  "date": "2020-03-03T13:29:52+09:00",
  "tags": "key, Mailgun"
 },
 {
  "line": "-----BEGIN PGP PRIVATE KEY BLOCK-----",
  "lineNumber": 1,
  "offender": "-----BEGIN PGP PRIVATE KEY BLOCK-----",
  "commit": "dcd85f36d177cd363ca4b353635767c031360da4",
  "repo": ".",
  "repoURL": "",
  "leakURL": "",
  "rule": "Asymmetric Private Key",
  "commitMessage": "add all keys\n",
  "author": "Isaac Dawson",
  "email": "idawson@gitlab.com",
  "file": "keys/pgp_ecc_key",
  "date": "2020-03-03T13:29:52+09:00",
  "tags": "key, AsymmetricPrivateKey"
 },
 {
  "line": "-----BEGIN PGP PRIVATE KEY BLOCK-----",
  "lineNumber": 1,
  "offender": "-----BEGIN PGP PRIVATE KEY BLOCK-----",
  "commit": "dcd85f36d177cd363ca4b353635767c031360da4",
  "repo": ".",
  "repoURL": "",
  "leakURL": "",
  "rule": "Asymmetric Private Key",
  "commitMessage": "add all keys\n",
  "author": "Isaac Dawson",
  "email": "idawson@gitlab.com",
  "file": "keys/pgp_rsa_key",
  "date": "2020-03-03T13:29:52+09:00",
  "tags": "key, AsymmetricPrivateKey"
 },
 {
  "line": "-----BEGIN OPENSSH PRIVATE KEY-----",
  "lineNumber": 1,
  "offender": "-----BEGIN OPENSSH PRIVATE KEY-----",
  "commit": "dcd85f36d177cd363ca4b353635767c031360da4",
  "repo": ".",
  "repoURL": "",
  "leakURL": "",
  "rule": "Asymmetric Private Key",
  "commitMessage": "add all keys\n",
  "author": "Isaac Dawson",
  "email": "idawson@gitlab.com",
  "file": "keys/rsa_key",
  "date": "2020-03-03T13:29:52+09:00",
  "tags": "key, AsymmetricPrivateKey"
 },
 {
  "line": "STRIPE_KEY=sk_live_4eC39HqLyjWDarjtT1zdp7dc",
  "lineNumber": 2,
  "offender": "STRIPE_KEY=sk_live_4eC39HqLyjWDarjtT1zdp7dc",
  "commit": "dcd85f36d177cd363ca4b353635767c031360da4",
  "repo": ".",
  "repoURL": "",
  "leakURL": "",
  "rule": "Stripe API key",
  "commitMessage": "add all keys\n",
  "author": "Isaac Dawson",
  "email": "idawson@gitlab.com",
  "file": "keys/stripe_key",
  "date": "2020-03-03T13:29:52+09:00",
  "tags": "key, Stripe"
 },
 {
  "line": "STRIPE_RESTRICTED_KEY=rk_live_4eC39HqLyjWDarjtT1zdp7dc",
  "lineNumber": 3,
  "offender": "STRIPE_RESTRICTED_KEY=rk_live_4eC39HqLyjWDarjtT1zdp7dc",
  "commit": "dcd85f36d177cd363ca4b353635767c031360da4",
  "repo": ".",
  "repoURL": "",
  "leakURL": "",
  "rule": "Stripe API key",
  "commitMessage": "add all keys\n",
  "author": "Isaac Dawson",
  "email": "idawson@gitlab.com",
  "file": "keys/stripe_key",
  "date": "2020-03-03T13:29:52+09:00",
  "tags": "key, Stripe"
 },
 {
  "line": "    \"type\": \"service_account\",",
  "lineNumber": 2,
  "offender": "\"type\": \"service_account\"",
  "commit": "dcd85f36d177cd363ca4b353635767c031360da4",
  "repo": ".",
  "repoURL": "",
  "leakURL": "",
  "rule": "Google (GCP) Service Account",
  "commitMessage": "add all keys\n",
  "author": "Isaac Dawson",
  "email": "idawson@gitlab.com",
  "file": "keys/testkeys-110044-23ecb974342473e425f395ddd5f8f787ac6be90d.json",
  "date": "2020-03-03T13:29:52+09:00",
  "tags": "key, Google"
 },
 {
  "line": "    \"private_key\": \"-----BEGIN PRIVATE KEY-----\\nMIIEvQIBADANBgkqhkiG9w0BAQEFAASCBKcwggSjAgEAAoIBAQC1Ah18OamHGpy2\\n1xVuWEKCI2OkPovHqY33R6HUCKW690Bs0D7k81ZFmoHcafjTH3uOuZWFsMooBC3Q\\neVgKw2RVDvPgsy6BswhumlVteuTti2eZIcmj/YIuEndLGH11HZuQevMTn3AupaHT\\nEPoYb8eF926vSWQhAfcWBU3XF3to5jyEg5Qtny9GY+FY0mUhX7LBdnYnhqLKhM7S\\nT5zFF4z/FDWYhbtfsmfU4g/hqjoB/7Fmwmz/ANVRKmQ8wLBA87dqIU2H4q1SewP+\\ncCsrNLYIo4hV3pyJtlEHczFg5N+9wxMq6YYuMoUl+oPq9x/ixfSdqNVshv5DurG+\\nFbgDH7VHAgMBAAECggEAUk126LAzVDoWfdCIbxb0jsXWnazO0+dVpNVOUOHpsXyR\\nL6j0oBfA538cgwMwX5bWEIxz30kGcnGL/1ndXW+ApGhbHZV7lP+52siUBWa2xwf3\\nABrr24P+eEJvOZcWHHVs8aHl+sspMByh2x3CCfBxcYmTK2Kcg6GoHrwkq6OCuqwJ\\naOD3YfcJU9c9/k6V3YT8b8CVifCWReZlHizPWolBdi/LpIQiuGmjRmsK6dqmvAXX\\nHndJcsFd1hUGtClSeZ8MOCySSjPVqFftiWet+H08OaX37Mj/h3prymGj++ArL0Mj\\nKwST11+OGCZLqgWgyNavDI9IWWmGuaKhOK7vUjrRKQKBgQDhnN1sRhShvOkbWkle\\nmkMI40E5qocho8zQV22I+wRl3Eg6/pp5GJAy9PRGWgxUjGa8+dIIjP1JVEqNpS7e\\nhDW9Se4p8xGP4HEus0wfQZwJnG6+iRajh1bdFdC2rezRjsEQQ16aD3ZhEPCRLz6J\\neRYXibW7iGV9oyGPfqmj69D3jQKBgQDNY0kzProBpw/NEYZVxyHwUMjVep4HyJUk\\nAju1yx4fm0PBLVLLV0FyGf3xn9RkUuk+efWXMP/j/2SGw44EQsOdMjmqAURn74Dc\\na80we4LLg51ebt29Q5zOhyfMV65LId6fK+TckirW06rbcM5S/M1ON8eFM90vviFw\\nJ+YjSXORIwKBgBnMXC1zXgyYk3dDPbyJmzy678xuSYF5P4RbWvUc7wXOyJumXXeX\\nbXXGOOCKj3pji6P0VSYRKS1nbBcCWnerWpHIkGlPmCSBn6+dZQj18afPsYIsHuCY\\nK0Cgq/sXrErSLhVz/q9TMVAsJbYUVuxVYkdSwestz50sODw2WaOa5YxJAoGALPZe\\nUPybZb8341HB0cdtM5nLzYgxTkzn8WEXxz13E74+v+x3IpKwfhUYlavCqE/KReYX\\nEIkmi7gePq5SybX/8srK+t+aJRK2aAqlecagJINkkQa+Pi+uBTxrRv2u5z276aaH\\nTI4nGK5vyehRErPLEiN95zgqZMg/s7jYVcM/rHcCgYEAyvR8yWanh9ZZO1dNYil6\\nUKXP5B4/MHklaJtXJs88xkRV1+/8gtyPBeoUJwFNh6fDzLAdijhYID3R2O+cKYyk\\nNTsPhxgB11sJy4EkVZrMbEb70LPtF2LlvLQp2nM/h/hCaEZ04yJ6KiKmPdlNlHRG\\n8Ar37umH1zAk1jYmpmmb2pQ=\\n-----END PRIVATE KEY-----\\n\",",
  "lineNumber": 5,
  "offender": "-----BEGIN PRIVATE KEY-----",
  "commit": "dcd85f36d177cd363ca4b353635767c031360da4",
  "repo": ".",
  "repoURL": "",
  "leakURL": "",
  "rule": "Asymmetric Private Key",
  "commitMessage": "add all keys\n",
  "author": "Isaac Dawson",
  "email": "idawson@gitlab.com",
  "file": "keys/testkeys-110044-23ecb974342473e425f395ddd5f8f787ac6be90d.json",
  "date": "2020-03-03T13:29:52+09:00",
  "tags": "key, AsymmetricPrivateKey"
 },
 {
  "line": "TWITTER_API_KEY=Kf5Duc0IGCwrfP3rZb9SjViHI",
  "lineNumber": 4,
  "offender": "TWITTER_API_KEY=Kf5Duc0IGCwrfP3rZb9SjViHI",
  "commit": "dcd85f36d177cd363ca4b353635767c031360da4",
  "repo": ".",
  "repoURL": "",
  "leakURL": "",
  "rule": "Twitter Client ID",
  "commitMessage": "add all keys\n",
  "author": "Isaac Dawson",
  "email": "idawson@gitlab.com",
  "file": "keys/twitter_key",
  "date": "2020-03-03T13:29:52+09:00",
  "tags": "client, Twitter"
 },
 {
  "line": "TWITTER_API_SECRET_KEY=Bola1RMN1I2DesoWOdrHCVse6iUBnzVZcK5oW5Kk7tWDRlVN4F",
  "lineNumber": 5,
  "offender": "TWITTER_API_SECRET_KEY=Bola1RMN1I2DesoWOdrHCVse6iUBnzVZcK5oW5Kk7tWDRlVN",
  "commit": "dcd85f36d177cd363ca4b353635767c031360da4",
  "repo": ".",
  "repoURL": "",
  "leakURL": "",
  "rule": "Twitter Secret Key",
  "commitMessage": "add all keys\n",
  "author": "Isaac Dawson",
  "email": "idawson@gitlab.com",
  "file": "keys/twitter_key",
  "date": "2020-03-03T13:29:52+09:00",
  "tags": "key, Twitter"
 },
 {
  "line": "TWITTER_API_SECRET_KEY=Bola1RMN1I2DesoWOdrHCVse6iUBnzVZcK5oW5Kk7tWDRlVN4F",
  "lineNumber": 5,
  "offender": "TWITTER_API_SECRET_KEY=Bola1RMN1I2DesoWOdrHCVse6iUBn",
  "commit": "dcd85f36d177cd363ca4b353635767c031360da4",
  "repo": ".",
  "repoURL": "",
  "leakURL": "",
  "rule": "Twitter Client ID",
  "commitMessage": "add all keys\n",
  "author": "Isaac Dawson",
  "email": "idawson@gitlab.com",
  "file": "keys/twitter_key",
  "date": "2020-03-03T13:29:52+09:00",
  "tags": "client, Twitter"
 },
 {
  "line": "slack_api_key = xoxp-905439787527-905447633015-963063100946-525994fbdbee1ef3096438e693ca6cf2",
  "lineNumber": 2,
  "offender": "xoxp-905439787527",
  "commit": "af00da34f6f7efa204d949a58b0e660bc6147661",
  "repo": ".",
  "repoURL": "",
  "leakURL": "",
  "rule": "Slack",
  "commitMessage": "add more secrets for testing\n",
  "author": "Isaac Dawson",
  "email": "idawson@gitlab.com",
  "file": "keys/.slack",
  "date": "2020-03-03T09:40:00+09:00",
  "tags": "key, Slack"
 },
 {
  "line": "const AWS_ID = \"AKIAIOSFODNN7EXAMPLE\"",
  "lineNumber": 10,
  "offender": "AKIAIOSFODNN7EXAMPLE",
  "commit": "4020cfefa12d5266406ccd48fa62ef37d0d5af56",
  "repo": ".",
  "repoURL": "",
  "leakURL": "",
  "rule": "AWS Access Key",
  "commitMessage": "Initial commit\n",
  "author": "Gilbert Roulot",
  "email": "groulot@gitlab.com",
  "file": "main.php",
  "date": "2019-03-14T14:10:27+01:00",
  "tags": "key, AWS"
 },
 {
  "line": "const AWS_KEY = \"wJalrXUtnFEMI/K7MDENG/bPxRfiCYEXAMPLEKEY\"",
  "lineNumber": 11,
  "offender": "AWS_KEY = \"wJalrXUtnFEMI/K7MDENG/bPxRfiCYEXAMPLEKEY\"",
  "commit": "4020cfefa12d5266406ccd48fa62ef37d0d5af56",
  "repo": ".",
  "repoURL": "",
  "leakURL": "",
  "rule": "AWS Secret Key",
  "commitMessage": "Initial commit\n",
  "author": "Gilbert Roulot",
  "email": "groulot@gitlab.com",
  "file": "main.php",
  "date": "2019-03-14T14:10:27+01:00",
  "tags": "key, AWS"
 },
 {
  "line": "const SSHKEY = `-----BEGIN RSA PRIVATE KEY-----",
  "lineNumber": 14,
  "offender": "-----BEGIN RSA PRIVATE KEY-----",
  "commit": "4020cfefa12d5266406ccd48fa62ef37d0d5af56",
  "repo": ".",
  "repoURL": "",
  "leakURL": "",
  "rule": "Asymmetric Private Key",
  "commitMessage": "Initial commit\n",
  "author": "Gilbert Roulot",
  "email": "groulot@gitlab.com",
  "file": "main.php",
  "date": "2019-03-14T14:10:27+01:00",
  "tags": "key, AsymmetricPrivateKey"
 }
]
